[
    {
        "id": "Licht",
        "name": "Licht",
        "widgets": [
            {
                "name": "Treppenlicht",
                "sizeX": 3,
                "sizeY": 1,
                "item": "PPTreppe_3_State",
                "type": "button",
                "row": 0,
                "col": 0,
                "command": "ON",
                "background": "#660066",
                "foreground_active": "#66FF66",
                "action_type": "toggle",
                "command_alt": "OFF"
            }
        ],
        "row": 0,
        "col": 0,
        "$$hashKey": "object:136"
    },
    {
        "id": "Heizung",
        "name": "Heizung",
        "widgets": [
            {
                "name": "Tagestemperatur",
                "sizeX": 4,
                "sizeY": 4,
                "item": "Heating_Daytemp",
                "type": "knob",
                "row": 1,
                "col": 0,
                "floor": 7,
                "ceil": 30,
                "step": 0.5,
                "subTextEnabled": true,
                "rangesEnabled": true,
                "rangesTextColorMatching": true,
                "ranges": [
                    {
                        "min": 7,
                        "max": 15,
                        "barColor": "#0000FF"
                    },
                    {
                        "min": 15,
                        "max": 20,
                        "barColor": "#FFFF00"
                    },
                    {
                        "min": 20,
                        "max": 25,
                        "barColor": "#FF6600"
                    },
                    {
                        "min": 25,
                        "max": 30,
                        "barColor": "#FF0000"
                    }
                ]
            },
            {
                "name": "Tagestemperatur",
                "sizeX": 4,
                "sizeY": 1,
                "item": null,
                "type": "label",
                "row": 0,
                "col": 0,
                "font_size": "30"
            },
            {
                "name": "Nachttemperatur",
                "sizeX": 4,
                "sizeY": 4,
                "item": "Heating_Nighttemp",
                "type": "knob",
                "floor": 7,
                "ceil": 30,
                "step": 0.5,
                "subTextEnabled": true,
                "rangesEnabled": true,
                "rangesTextColorMatching": true,
                "ranges": [
                    {
                        "min": 7,
                        "max": 15,
                        "barColor": "#0000FF"
                    },
                    {
                        "min": 15,
                        "max": 20,
                        "barColor": "#FFFF00"
                    },
                    {
                        "min": 20,
                        "max": 25,
                        "barColor": "#FF6600"
                    },
                    {
                        "min": 25,
                        "max": 30,
                        "barColor": "#FF0000"
                    }
                ],
                "row": 1,
                "col": 4
            },
            {
                "name": "Ferientemperatur",
                "sizeX": 4,
                "sizeY": 4,
                "item": "Heating_Vactemp",
                "type": "knob",
                "floor": 7,
                "ceil": 30,
                "step": 0.5,
                "subTextEnabled": true,
                "rangesEnabled": true,
                "rangesTextColorMatching": true,
                "ranges": [
                    {
                        "min": 7,
                        "max": 15,
                        "barColor": "#0000FF"
                    },
                    {
                        "min": 15,
                        "max": 20,
                        "barColor": "#FFFF00"
                    },
                    {
                        "min": 20,
                        "max": 25,
                        "barColor": "#FF6600"
                    },
                    {
                        "min": 25,
                        "max": 30,
                        "barColor": "#FF0000"
                    }
                ],
                "row": 1,
                "col": 8
            }
        ],
        "row": 1,
        "col": 0,
        "$$hashKey": "object:137"
    },
    {
        "id": "Morning",
        "name": "Morning",
        "widgets": [
            {
                "name": "Bus",
                "sizeX": 6,
                "sizeY": 6,
                "type": "frame",
                "row": 2,
                "col": 6,
                "url_source": "static",
                "frameUrl": "http://fischernet.net/accuweathermeise.html",
                "$$hashKey": "object:146"
            },
            {
                "name": "",
                "sizeX": 6,
                "sizeY": 2,
                "item": "Bus_260",
                "type": "dummy",
                "row": 0,
                "col": 6,
                "font_size": "40",
                "useserverformat": false,
                "$$hashKey": "object:147"
            },
            {
                "name": "Next 260",
                "sizeX": 6,
                "sizeY": 2,
                "item": null,
                "type": "label",
                "row": 0,
                "col": 0,
                "font_size": "30",
                "$$hashKey": "object:148"
            },
            {
                "name": "New Widget",
                "sizeX": 6,
                "sizeY": 6,
                "type": "frame",
                "row": 2,
                "col": 0,
                "url_source": "static",
                "frameUrl": "https://calendar.google.com/calendar/embed?src=naja2fischer%40gmail.com&ctz=Europe%2FBerlin",
                "$$hashKey": "object:149"
            }
        ],
        "row": 2,
        "col": 0,
        "tile": {},
        "$$hashKey": "object:138"
    }
]